…
我们将要使用的主要数据集是`injuries`，其中包含约25万次观测：

```
injuries <- vroom::vroom("neiss/injuries.tsv.gz")
injuries
#> # A tibble: 255,064 × 10
#>   trmt_date    age sex   race  body_part   diag    locat…¹ prod_…² weight narra…³
#>   <date>     <dbl> <chr> <chr> <chr>       <chr>   <chr>     <dbl>  <dbl> <chr>  
#> 1 2017-01-01    71 male  white Upper Trunk Contus… Other …    1807   77.7 71YOM …
#> 2 2017-01-01    16 male  white Lower Arm   Burns,… Home        676   77.7 16YOM …
#> 3 2017-01-01    58 male  white Upper Trunk Contus… Home        649   77.7 58 YOM…
#> 4 2017-01-01    21 male  white Lower Trunk Strain… Home       4076   77.7 21 YOM…
#> 5 2017-01-01    54 male  white Head        Inter … Other …    1807   77.7 54 YOM…
#> 6 2017-01-01    21 male  white Hand        Fractu… Home       1884   77.7 21 YOM…
#> # … with 255,058 more rows, and abbreviated variable names ¹location,
#> #   ²prod_code, ³narrative
```
…
- `trmt_date`是该人在医院被看到的日期（不是事故发生时间）。
- `age`、`sex`和`race`提供了有关经历事故的人的人口统计信息。
- `body_part`是身体受伤的位置（如脚踝或耳朵）；`location`是事故发生的地方（如家庭或学校）。
- `diag`给出损伤的基本诊断（如骨折或撕裂）。
- `prod_code`是与伤害相关的主要产品。
- `weight`是统计权重，如果将该数据集扩展到美国全体人口，将遭受这种伤害的估计人数。
- `narrative`是一个关于事故如何发生的简短描述。

我们将其与其他两个数据框配对，以获取其他上下文：`products`让我们从产品代码中查找产品名称，`population`告诉我们2017年美国每个年龄和性别组合的总人口。

```
products <- vroom::vroom("neiss/products.tsv")
products
#> # A tibble: 38 × 2
#>   prod_code title                            
#>       <dbl> <chr>                            
#> 1       464 knives, not elsewhere classified 
#> 2       474 tableware and accessories        
#> 3       604 desks, chests, bureaus or buffets
#> 4       611 bathtubs or showers              
#> 5       649 toilets                          
#> 6       676 rugs or carpets, not specified   
#> # … with 32 more rows

population <- vroom::vroom("neiss/population.tsv")
population
#> # A tibble: 170 × 3
#>     age sex    population
#>   <dbl> <chr>       <dbl>
#> 1     0 female    1924145
#> 2     0 male      2015150
#> 3     1 female    1943534
#> 4     1 male      2031718
#> 5     2 female    1965150
#> 6     2 male      2056625
#> # … with 164 more rows
```
…
```
selected %>% count(location, wt = weight, sort = TRUE)
#> # A tibble: 6 × 2
#>   location                         n
#>   <chr>                        <dbl>
#> 1 Home                       99603. 
#> 2 Other Public Property      18663. 
#> 3 Unknown                    16267. 
#> 4 School                       659. 
#> 5 Street Or Highway             16.2
#> 6 Sports Or Recreation Place    14.8

selected %>% count(body_part, wt = weight, sort = TRUE)
#> # A tibble: 24 × 2
#>   body_part        n
#>   <chr>        <dbl>
#> 1 Head        31370.
#> 2 Lower Trunk 26855.
#> 3 Face        13016.
#> 4 Upper Trunk 12508.
#> 5 Knee         6968.
#> 6 N.S./Unk     6741.
#> # … with 18 more rows

selected %>% count(diag, wt = weight, sort = TRUE)
#> # A tibble: 20 × 2
#>   diag                       n
#>   <chr>                  <dbl>
#> 1 Other Or Not Stated   32897.
#> 2 Contusion Or Abrasion 22493.
#> 3 Inter Organ Injury    21525.
#> 4 Fracture              21497.
#> 5 Laceration            18734.
#> 6 Strain, Sprain         7609.
#> # … with 14 more rows
```

正如你可能预料的那样，涉及厕所的伤害最常发生在家里。最常见的身体部位可能是跌倒，诊断似乎相当多样。

我们还可以探索跨年龄和性别的模式。我们这里有足够的数据，表格没有那么有用，所以我做了一个图，图[4.1](https://mastering-shiny.org/basic-case-study.html#fig:toilets-raw)，使模式更加明显。

```
summary <- selected %>% 
  count(age, sex, wt = weight)
summary
#> # A tibble: 208 × 3
#>     age sex         n
#>   <dbl> <chr>   <dbl>
#> 1     0 female   4.76
#> 2     0 male    14.3 
#> 3     1 female 253.  
#> 4     1 male   231.  
#> 5     2 female 438.  
#> 6     2 male   632.  
#> # … with 202 more rows
…
图4.1：按年龄和性别分列的厕所造成的伤害估计人数

我们看到年轻男孩在3岁时达到峰值，然后从中年左右开始增加（特别是女性），80岁后逐渐下降。我怀疑高峰期是因为男孩通常站着上厕所，而女性的增加是由于骨质疏松症（即我怀疑女性和男性的受伤率相同，但更多的女性最终进入急诊室，因为她们骨折的风险更高）。

解释这种模式的一个问题是，我们知道老年人比年轻人少，所以受伤的人口较少。我们可以通过将受伤人数与总人口进行比较并计算受伤率来控制这一点。在这里，我使用的比率是每10,000个人中发生事故的比率。

```
summary <- selected %>% 
  count(age, sex, wt = weight) %>% 
  left_join(population, by = c("age", "sex")) %>% 
  mutate(rate = n / population * 1e4)

summary
#> # A tibble: 208 × 5
#>     age sex         n population   rate
#>   <dbl> <chr>   <dbl>      <dbl>  <dbl>
#> 1     0 female   4.76    1924145 0.0247
#> 2     0 male    14.3     2015150 0.0708
#> 3     1 female 253.      1943534 1.30  
#> 4     1 male   231.      2031718 1.14  
#> 5     2 female 438.      1965150 2.23  
#> 6     2 male   632.      2056625 3.07  
#> # … with 202 more rows
```
…
