Shiny-Part II
…
xxxxxxxxxx

sales <- readr::read_csv("sales-dashboard/sales_data_sample.csv")

sales <- sales[c(

  "TERRITORY", "ORDERDATE", "ORDERNUMBER", "PRODUCTCODE",

  "QUANTITYORDERED", "PRICEEACH"

)]

sales

#> # A tibble: 2,823 × 6

#>   TERRITORY ORDERDATE      ORDERNUMBER PRODUCTCODE QUANTITYORDERED PRICEEACH

#>   <chr>     <chr>                <dbl> <chr>                 <dbl>     <dbl>

#> 1 <NA>      2/24/2003 0:00       10107 S10_1678                 30      95.7

#> 2 EMEA      5/7/2003 0:00        10121 S10_1678                 34      81.4

#> 3 EMEA      7/1/2003 0:00        10134 S10_1678                 41      94.7

#> 4 <NA>      8/25/2003 0:00       10145 S10_1678                 45      83.3

#> # … with 2,819 more rows
…
server <- function(input, output, session) {

  selected <- reactive(sales[sales$TERRITORY == input$territory, ])

  output$selected <- renderTable(head(selected(), 10))

}

我想，这是一个八行应用程序，不可能会出什么问题？好吧，当我打开应用程序时，我看到了很多缺失的值，无论我选择什么领域。最有可能的代码是选择数据显示的反应式表达式代码：sales[sales$TERRITORY == input$territory, ]。因此，我停止了该应用程序，并迅速验证了这个问题：

xxxxxxxxxx

sales[sales$TERRITORY == "EMEA", ]

#> # A tibble: 2,481 × 6

#>   TERRITORY ORDERDATE     ORDERNUMBER PRODUCTCODE QUANTITYORDERED PRICEEACH

#>   <chr>     <chr>               <dbl> <chr>                 <dbl>     <dbl>

#> 1 <NA>      <NA>                   NA <NA>                     NA      NA  

#> 2 EMEA      5/7/2003 0:00       10121 S10_1678                 34      81.4

#> 3 EMEA      7/1/2003 0:00       10134 S10_1678                 41      94.7

#> 4 <NA>      <NA>                   NA <NA>                     NA      NA  

#> # … with 2,477 more rows
…
head(sales$TERRITORY == "EMEA", 25)

#>  [1]    NA  TRUE  TRUE    NA    NA    NA  TRUE  TRUE    NA  TRUE FALSE    NA

#> [13]    NA    NA  TRUE    NA  TRUE  TRUE    NA    NA  TRUE FALSE  TRUE    NA

#> [25]  TRUE

当我使用这些缺失的值，提取sales数据框子集”时，这些缺失的值都会变成缺失的行；输入中的任何缺失值都将保留在输出中。有很多方法可以解决这个问题，但我决定使用subset()，因为会自动删除缺失的值，并减少我需要键入sales的次数。然后我仔细检查了这确实有效：

xxxxxxxxxx

subset(sales, TERRITORY == "EMEA")

#> # A tibble: 1,407 × 6

#>   TERRITORY ORDERDATE       ORDERNUMBER PRODUCTCODE QUANTITYORDERED PRICEEACH

#>   <chr>     <chr>                 <dbl> <chr>                 <dbl>     <dbl>

#> 1 EMEA      5/7/2003 0:00         10121 S10_1678                 34      81.4

#> 2 EMEA      7/1/2003 0:00         10134 S10_1678                 41      94.7

#> 3 EMEA      11/11/2003 0:00       10180 S10_1678                 29      86.1

#> 4 EMEA      11/18/2003 0:00       10188 S10_1678                 48     100  

#> # … with 1,403 more rows
…
您可以使用另一个技巧来解决这个问题：从==切换到%in%：

xxxxxxxxxx

head(sales$TERRITORY %in% NA, 25)

#>  [1]  TRUE FALSE FALSE  TRUE  TRUE  TRUE FALSE FALSE  TRUE FALSE FALSE  TRUE

#> [13]  TRUE  TRUE FALSE  TRUE FALSE FALSE  TRUE  TRUE FALSE FALSE FALSE  TRUE

#> [25] FALSE

subset(sales, TERRITORY %in% NA)

#> # A tibble: 1,074 × 6

#>   TERRITORY ORDERDATE       ORDERNUMBER PRODUCTCODE QUANTITYORDERED PRICEEACH

#>   <chr>     <chr>                 <dbl> <chr>                 <dbl>     <dbl>

#> 1 <NA>      2/24/2003 0:00        10107 S10_1678                 30      95.7

#> 2 <NA>      8/25/2003 0:00        10145 S10_1678                 45      83.3

#> 3 <NA>      10/10/2003 0:00       10159 S10_1678                 49     100  

#> 4 <NA>      10/28/2003 0:00       10168 S10_1678                 36      96.7

#> # … with 1,070 more rows
…
xxxxxxxxxx

sales <- vroom::vroom("sales-dashboard/sales_data_sample.csv", col_types = list(), na = "")

sales %>% 

  select(TERRITORY, CUSTOMERNAME, ORDERNUMBER, everything()) %>%

  arrange(ORDERNUMBER)

#> # A tibble: 2,823 × 25

#>    TERRITORY CUSTOM…¹ ORDER…² QUANT…³ PRICE…⁴ ORDER…⁵ SALES ORDER…⁶ STATUS QTR_ID

#>    <chr>     <chr>      <dbl>   <dbl>   <dbl>   <dbl> <dbl> <chr>   <chr>   <dbl>

#>  1 NA        Online …   10100      30   100         3 5151  1/6/20… Shipp…      1

#>  2 NA        Online …   10100      50    67.8       2 3390  1/6/20… Shipp…      1

#>  3 NA        Online …   10100      22    86.5       4 1903. 1/6/20… Shipp…      1

#>  4 NA        Online …   10100      49    34.5       1 1689. 1/6/20… Shipp…      1

#>  5 EMEA      Blauer …   10101      25   100         4 3782  1/9/20… Shipp…      1

#>  6 EMEA      Blauer …   10101      26   100         1 3773. 1/9/20… Shipp…      1

#>  7 EMEA      Blauer …   10101      45    31.2       3 1404  1/9/20… Shipp…      1

#>  8 EMEA      Blauer …   10101      46    53.8       2 2473. 1/9/20… Shipp…      1

#>  9 NA        Vitachr…   10102      39   100         2 4808. 1/10/2… Shipp…      1

#> 10 NA        Vitachr…   10102      41    50.1       1 2056. 1/10/2… Shipp…      1

#> # … with 2,813 more rows, 15 more variables: MONTH_ID <dbl>, YEAR_ID <dbl>,
…
xxxxxxxxxx

min <- 1

diamonds %>% filter(carat > min)

#> # A tibble: 17,502 × 10

#>   carat cut       color clarity depth table price     x     y     z

#>   <dbl> <ord>     <ord> <ord>   <dbl> <dbl> <int> <dbl> <dbl> <dbl>

#> 1  1.17 Very Good J     I1       60.2    61  2774  6.83  6.9   4.13

#> 2  1.01 Premium   F     I1       61.8    60  2781  6.39  6.36  3.94

#> 3  1.01 Fair      E     I1       64.5    58  2788  6.29  6.21  4.03

#> 4  1.01 Premium   H     SI2      62.7    59  2788  6.31  6.22  3.93

#> 5  1.05 Very Good J     SI2      63.2    56  2789  6.49  6.45  4.09

#> 6  1.05 Fair      J     SI2      65.8    59  2789  6.41  6.27  4.18

#> # … with 17,496 more rows
…
